%YAML 1.1
%TAG !u! tag:unity3d.com,2011:
--- !u!319 &31900000
AvatarMask:
  m_ObjectHideFlags: 0
  m_CorrespondingSourceObject: {fileID: 0}
  m_PrefabInstance: {fileID: 0}
  m_PrefabAsset: {fileID: 0}
  m_Name: sparrow
  m_Mask: 00000000000000000000000000000000000000000000000000000000000000000000000000000000000000000000000000000000
  m_Elements:
  - m_Path: 
    m_Weight: 1
  - m_Path: Mesh
    m_Weight: 0
  - m_Path: Rig
    m_Weight: 1
  - m_Path: Rig/root
    m_Weight: 1
  - m_Path: Rig/root/body
    m_Weight: 1
  - m_Path: Rig/root/body/feet.L
    m_Weight: 1
  - m_Path: Rig/root/body/feet.R
    m_Weight: 1
  - m_Path: Rig/root/body/hair.01
    m_Weight: 1
  - m_Path: Rig/root/body/hair.02
    m_Weight: 1
  - m_Path: Rig/root/body/tail.01
    m_Weight: 1
  - m_Path: Rig/root/body/tail.02
    m_Weight: 1
  - m_Path: Rig/root/body/wing.L
    m_Weight: 1
  - m_Path: Rig/root/body/wing.R
    m_Weight: 1
