{
    "name": "New Controls",
    "maps": [
        {
            "name": "Gameplay",
            "id": "6fc542db-476d-4dd7-a150-6c13a5dab723",
            "actions": [
                {
                    "name": "AttackMelee",
                    "type": "Button",
                    "id": "0fa8aaa5-53f0-4ca3-9468-69d8a36ef78c",
                    "expectedControlType": "Button",
                    "processors": "",
                    "interactions": "",
                    "initialStateCheck": false
                },
                {
                    "name": "Jump",
                    "type": "Button",
                    "id": "6ed1949d-20ef-49a3-a275-b8b64372cca8",
                    "expectedControlType": "Button",
                    "processors": "",
                    "interactions": "",
                    "initialStateCheck": false
                }
            ],
            "bindings": [
                {
                    "name": "",
                    "id": "fcf78ca1-6f3a-4d80-aefb-e50f52bc8276",
                    "path": "<Mouse>/leftButton",
                    "interactions": "",
                    "processors": "",
                    "groups": "",
                    "action": "AttackMelee",
                    "isComposite": false,
                    "isPartOfComposite": false
                },
                {
                    "name": "",
                    "id": "bf9ba59b-198a-4893-8f22-9011ea1acce2",
                    "path": "<Keyboard>/space",
                    "interactions": "",
                    "processors": "",
                    "groups": "",
                    "action": "Jump",
                    "isComposite": false,
                    "isPartOfComposite": false
                }
            ]
        },
        {
            "name": "UI",
            "id": "f4cb84de-616d-4f13-88a7-930c1d7ae2a7",
            "actions": [
                {
                    "name": "Back",
                    "type": "Button",
                    "id": "a3745920-10e1-445e-b22d-dbf477d8ff69",
                    "expectedControlType": "Button",
                    "processors": "",
                    "interactions": "",
                    "initialStateCheck": false
                },
                {
                    "name": "Enter",
                    "type": "Button",
                    "id": "8ce002f2-cc70-4fe6-b12f-2c00afc45fb8",
                    "expectedControlType": "Button",
                    "processors": "",
                    "interactions": "",
                    "initialStateCheck": false
                }
            ],
            "bindings": [
                {
                    "name": "",
                    "id": "6457e2dc-5113-4693-9612-841bebc4be36",
                    "path": "<Keyboard>/escape",
                    "interactions": "",
                    "processors": "",
                    "groups": "",
                    "action": "Back",
                    "isComposite": false,
                    "isPartOfComposite": false
                },
                {
                    "name": "",
                    "id": "5895c26d-b2f3-4e97-8c84-39c5963f037a",
                    "path": "<Keyboard>/enter",
                    "interactions": "",
                    "processors": "",
                    "groups": "",
                    "action": "Enter",
                    "isComposite": false,
                    "isPartOfComposite": false
                }
            ]
        }
    ],
    "controlSchemes": []
}