{
    "name": "XynokInput",
    "rootNamespace": "XynokInput",
    "references": [
        "GUID:75469ad4d38634e559750d17036d5f7c",
        "GUID:82578071c2023b44f838a186ec8afe35",
        "GUID:df0331636661d4a4997e06def126ec4a",
        "GUID:f51ebe6a0ceec4240a699833d6309b23",
        "GUID:43652591db415ab45ba6325bb2b776c5",
        "GUID:0ac20b4db4bcc2b46b37397c6e847759"
    ],
    "includePlatforms": [],
    "excludePlatforms": [],
    "allowUnsafeCode": false,
    "overrideReferences": false,
    "precompiledReferences": [],
    "autoReferenced": true,
    "defineConstraints": [],
    "versionDefines": [],
    "noEngineReferences": false
}