%YAML 1.1
%TAG !u! tag:unity3d.com,2011:
--- !u!114 &11400000
MonoBehaviour:
  m_ObjectHideFlags: 0
  m_CorrespondingSourceObject: {fileID: 0}
  m_PrefabInstance: {fileID: 0}
  m_PrefabAsset: {fileID: 0}
  m_GameObject: {fileID: 0}
  m_Enabled: 1
  m_EditorHideFlags: 0
  m_Script: {fileID: 11500000, guid: a01ce799fdc54646bff01a21af7bda65, type: 3}
  m_Name: GUIPrefabManaged
  m_EditorClassIdentifier: 
  rootFolder:
    folderPath: Assets/AssetBundle/Teset01
    folderName: Teset01
    subFolders:
    - folderPath: Assets/AssetBundle/Teset01/Alert
      folderName: Alert
      prefabs: []
    - folderPath: Assets/AssetBundle/Teset01/Modal
      folderName: Modal
      prefabs: []
    - folderPath: Assets/AssetBundle/Teset01/Screen
      folderName: Screen
      prefabs:
      - sourceName: s1
        source:
          m_AssetGUID: 03c3e9becdcf98d4e969998d094d8c73
          m_SubObjectName: 
          m_SubObjectType: 
          m_EditorAssetChanged: 0
      - sourceName: s2
        source:
          m_AssetGUID: e8f82a72763ab2f48ad62968aee6cb5f
          m_SubObjectName: 
          m_SubObjectType: 
          m_EditorAssetChanged: 0
      - sourceName: s3
        source:
          m_AssetGUID: 7af9bf778ced47845886221dd7ef0489
          m_SubObjectName: 
          m_SubObjectType: 
          m_EditorAssetChanged: 0
    - folderPath: Assets/AssetBundle/Teset01/System
      folderName: System
      prefabs:
      - sourceName: Panel
        source:
          m_AssetGUID: 3ffd7f3d448f19742978c92349907b7f
          m_SubObjectName: 
          m_SubObjectType: 
          m_EditorAssetChanged: 0
    - folderPath: Assets/AssetBundle/Teset01/Tutorial
      folderName: Tutorial
      prefabs: []
  categories:
  - Alert
  - Modal
  - Screen
  - System
  - Tutorial
  currentPrefabs:
  - screen_launcher
