%YAML 1.1
%TAG !u! tag:unity3d.com,2011:
--- !u!1 &2138081080131547018
GameObject:
  m_ObjectHideFlags: 0
  m_CorrespondingSourceObject: {fileID: 0}
  m_PrefabInstance: {fileID: 0}
  m_PrefabAsset: {fileID: 0}
  serializedVersion: 6
  m_Component:
  - component: {fileID: 3235087198473845056}
  - component: {fileID: 5900902974422160117}
  - component: {fileID: 7639603332276683817}
  m_Layer: 0
  m_Name: MeshA
  m_TagString: Untagged
  m_Icon: {fileID: 0}
  m_NavMeshLayer: 0
  m_StaticEditorFlags: 0
  m_IsActive: 1
--- !u!4 &3235087198473845056
Transform:
  m_ObjectHideFlags: 0
  m_CorrespondingSourceObject: {fileID: 0}
  m_PrefabInstance: {fileID: 0}
  m_PrefabAsset: {fileID: 0}
  m_GameObject: {fileID: 2138081080131547018}
  m_LocalRotation: {x: 0, y: 0, z: 0, w: 1}
  m_LocalPosition: {x: 0, y: 0, z: 0}
  m_LocalScale: {x: 1, y: 1, z: 1}
  m_ConstrainProportionsScale: 0
  m_Children: []
  m_Father: {fileID: 3329894725990415766}
  m_RootOrder: 1
  m_LocalEulerAnglesHint: {x: 0, y: 0, z: 0}
--- !u!23 &5900902974422160117
MeshRenderer:
  m_ObjectHideFlags: 0
  m_CorrespondingSourceObject: {fileID: 0}
  m_PrefabInstance: {fileID: 0}
  m_PrefabAsset: {fileID: 0}
  m_GameObject: {fileID: 2138081080131547018}
  m_Enabled: 1
  m_CastShadows: 0
  m_ReceiveShadows: 0
  m_DynamicOccludee: 0
  m_StaticShadowCaster: 0
  m_MotionVectors: 1
  m_LightProbeUsage: 0
  m_ReflectionProbeUsage: 0
  m_RayTracingMode: 2
  m_RayTraceProcedural: 0
  m_RenderingLayerMask: 1
  m_RendererPriority: 0
  m_Materials:
  - {fileID: 8623078618439313755, guid: 21a5fd57c8c888d44ab11a871c740c02, type: 2}
  m_StaticBatchInfo:
    firstSubMesh: 0
    subMeshCount: 0
  m_StaticBatchRoot: {fileID: 0}
  m_ProbeAnchor: {fileID: 0}
  m_LightProbeVolumeOverride: {fileID: 0}
  m_ScaleInLightmap: 1
  m_ReceiveGI: 1
  m_PreserveUVs: 0
  m_IgnoreNormalsForChartDetection: 0
  m_ImportantGI: 0
  m_StitchLightmapSeams: 1
  m_SelectedEditorRenderState: 3
  m_MinimumChartSize: 4
  m_AutoUVMaxDistance: 0.5
  m_AutoUVMaxAngle: 89
  m_LightmapParameters: {fileID: 0}
  m_SortingLayerID: 0
  m_SortingLayer: 0
  m_SortingOrder: 0
  m_AdditionalVertexStreams: {fileID: 0}
--- !u!33 &7639603332276683817
MeshFilter:
  m_ObjectHideFlags: 0
  m_CorrespondingSourceObject: {fileID: 0}
  m_PrefabInstance: {fileID: 0}
  m_PrefabAsset: {fileID: 0}
  m_GameObject: {fileID: 2138081080131547018}
  m_Mesh: {fileID: 0}
--- !u!1 &3413381629003018992
GameObject:
  m_ObjectHideFlags: 0
  m_CorrespondingSourceObject: {fileID: 0}
  m_PrefabInstance: {fileID: 0}
  m_PrefabAsset: {fileID: 0}
  serializedVersion: 6
  m_Component:
  - component: {fileID: 8144629161236317505}
  - component: {fileID: 7093677339541222494}
  - component: {fileID: 237421183183006938}
  m_Layer: 0
  m_Name: MeshB
  m_TagString: Untagged
  m_Icon: {fileID: 0}
  m_NavMeshLayer: 0
  m_StaticEditorFlags: 0
  m_IsActive: 1
--- !u!4 &8144629161236317505
Transform:
  m_ObjectHideFlags: 0
  m_CorrespondingSourceObject: {fileID: 0}
  m_PrefabInstance: {fileID: 0}
  m_PrefabAsset: {fileID: 0}
  m_GameObject: {fileID: 3413381629003018992}
  m_LocalRotation: {x: 0, y: 0, z: 0, w: 1}
  m_LocalPosition: {x: 0, y: 0, z: 0}
  m_LocalScale: {x: 1, y: 1, z: 1}
  m_ConstrainProportionsScale: 0
  m_Children: []
  m_Father: {fileID: 3329894725990415766}
  m_RootOrder: 2
  m_LocalEulerAnglesHint: {x: 0, y: 0, z: 0}
--- !u!23 &7093677339541222494
MeshRenderer:
  m_ObjectHideFlags: 0
  m_CorrespondingSourceObject: {fileID: 0}
  m_PrefabInstance: {fileID: 0}
  m_PrefabAsset: {fileID: 0}
  m_GameObject: {fileID: 3413381629003018992}
  m_Enabled: 1
  m_CastShadows: 0
  m_ReceiveShadows: 0
  m_DynamicOccludee: 0
  m_StaticShadowCaster: 0
  m_MotionVectors: 1
  m_LightProbeUsage: 0
  m_ReflectionProbeUsage: 0
  m_RayTracingMode: 2
  m_RayTraceProcedural: 0
  m_RenderingLayerMask: 1
  m_RendererPriority: 0
  m_Materials:
  - {fileID: 8623078618439313755, guid: 21a5fd57c8c888d44ab11a871c740c02, type: 2}
  m_StaticBatchInfo:
    firstSubMesh: 0
    subMeshCount: 0
  m_StaticBatchRoot: {fileID: 0}
  m_ProbeAnchor: {fileID: 0}
  m_LightProbeVolumeOverride: {fileID: 0}
  m_ScaleInLightmap: 1
  m_ReceiveGI: 1
  m_PreserveUVs: 0
  m_IgnoreNormalsForChartDetection: 0
  m_ImportantGI: 0
  m_StitchLightmapSeams: 1
  m_SelectedEditorRenderState: 3
  m_MinimumChartSize: 4
  m_AutoUVMaxDistance: 0.5
  m_AutoUVMaxAngle: 89
  m_LightmapParameters: {fileID: 0}
  m_SortingLayerID: 0
  m_SortingLayer: 0
  m_SortingOrder: 0
  m_AdditionalVertexStreams: {fileID: 0}
--- !u!33 &237421183183006938
MeshFilter:
  m_ObjectHideFlags: 0
  m_CorrespondingSourceObject: {fileID: 0}
  m_PrefabInstance: {fileID: 0}
  m_PrefabAsset: {fileID: 0}
  m_GameObject: {fileID: 3413381629003018992}
  m_Mesh: {fileID: 0}
--- !u!1 &4113099891430895703
GameObject:
  m_ObjectHideFlags: 0
  m_CorrespondingSourceObject: {fileID: 0}
  m_PrefabInstance: {fileID: 0}
  m_PrefabAsset: {fileID: 0}
  serializedVersion: 6
  m_Component:
  - component: {fileID: 4422976884999247233}
  - component: {fileID: 2442206338865283565}
  - component: {fileID: 6414159196296656402}
  m_Layer: 0
  m_Name: TMP
  m_TagString: Untagged
  m_Icon: {fileID: 0}
  m_NavMeshLayer: 0
  m_StaticEditorFlags: 0
  m_IsActive: 0
--- !u!224 &4422976884999247233
RectTransform:
  m_ObjectHideFlags: 0
  m_CorrespondingSourceObject: {fileID: 0}
  m_PrefabInstance: {fileID: 0}
  m_PrefabAsset: {fileID: 0}
  m_GameObject: {fileID: 4113099891430895703}
  m_LocalRotation: {x: 0, y: 0, z: 0, w: 1}
  m_LocalPosition: {x: 0, y: 0, z: 0}
  m_LocalScale: {x: 1, y: 1, z: 1}
  m_ConstrainProportionsScale: 0
  m_Children: []
  m_Father: {fileID: 3329894725990415766}
  m_RootOrder: 0
  m_LocalEulerAnglesHint: {x: 0, y: 0, z: 0}
  m_AnchorMin: {x: 0.5, y: 0.5}
  m_AnchorMax: {x: 0.5, y: 0.5}
  m_AnchoredPosition: {x: 0, y: 0}
  m_SizeDelta: {x: 4, y: 2}
  m_Pivot: {x: 0.5, y: 0.5}
--- !u!23 &2442206338865283565
MeshRenderer:
  m_ObjectHideFlags: 0
  m_CorrespondingSourceObject: {fileID: 0}
  m_PrefabInstance: {fileID: 0}
  m_PrefabAsset: {fileID: 0}
  m_GameObject: {fileID: 4113099891430895703}
  m_Enabled: 1
  m_CastShadows: 0
  m_ReceiveShadows: 0
  m_DynamicOccludee: 1
  m_StaticShadowCaster: 0
  m_MotionVectors: 1
  m_LightProbeUsage: 1
  m_ReflectionProbeUsage: 1
  m_RayTracingMode: 2
  m_RayTraceProcedural: 0
  m_RenderingLayerMask: 1
  m_RendererPriority: 0
  m_Materials:
  - {fileID: 8623078618439313755, guid: 21a5fd57c8c888d44ab11a871c740c02, type: 2}
  m_StaticBatchInfo:
    firstSubMesh: 0
    subMeshCount: 0
  m_StaticBatchRoot: {fileID: 0}
  m_ProbeAnchor: {fileID: 0}
  m_LightProbeVolumeOverride: {fileID: 0}
  m_ScaleInLightmap: 1
  m_ReceiveGI: 1
  m_PreserveUVs: 0
  m_IgnoreNormalsForChartDetection: 0
  m_ImportantGI: 0
  m_StitchLightmapSeams: 1
  m_SelectedEditorRenderState: 3
  m_MinimumChartSize: 4
  m_AutoUVMaxDistance: 0.5
  m_AutoUVMaxAngle: 89
  m_LightmapParameters: {fileID: 0}
  m_SortingLayerID: 0
  m_SortingLayer: 0
  m_SortingOrder: 0
  m_AdditionalVertexStreams: {fileID: 0}
--- !u!114 &6414159196296656402
MonoBehaviour:
  m_ObjectHideFlags: 0
  m_CorrespondingSourceObject: {fileID: 0}
  m_PrefabInstance: {fileID: 0}
  m_PrefabAsset: {fileID: 0}
  m_GameObject: {fileID: 4113099891430895703}
  m_Enabled: 1
  m_EditorHideFlags: 0
  m_Script: {fileID: 11500000, guid: 9541d86e2fd84c1d9990edf0852d74ab, type: 3}
  m_Name: 
  m_EditorClassIdentifier: 
  m_Material: {fileID: 0}
  m_Color: {r: 1, g: 1, b: 1, a: 1}
  m_RaycastTarget: 1
  m_RaycastPadding: {x: 0, y: 0, z: 0, w: 0}
  m_Maskable: 1
  m_OnCullStateChanged:
    m_PersistentCalls:
      m_Calls: []
  m_text: 123
  m_isRightToLeft: 0
  m_fontAsset: {fileID: 11400000, guid: 21a5fd57c8c888d44ab11a871c740c02, type: 2}
  m_sharedMaterial: {fileID: 8623078618439313755, guid: 21a5fd57c8c888d44ab11a871c740c02,
    type: 2}
  m_fontSharedMaterials: []
  m_fontMaterial: {fileID: 0}
  m_fontMaterials: []
  m_fontColor32:
    serializedVersion: 2
    rgba: 4294967295
  m_fontColor: {r: 1, g: 1, b: 1, a: 1}
  m_enableVertexGradient: 1
  m_colorMode: 2
  m_fontColorGradient:
    topLeft: {r: 1, g: 0.49490198, b: 0.27843142, a: 1}
    topRight: {r: 1, g: 0.49490198, b: 0.27843142, a: 1}
    bottomLeft: {r: 0.7254902, g: 0.06045752, b: 0, a: 1}
    bottomRight: {r: 0.7254902, g: 0.06045752, b: 0, a: 1}
  m_fontColorGradientPreset: {fileID: 0}
  m_spriteAsset: {fileID: 0}
  m_tintAllSprites: 0
  m_StyleSheet: {fileID: 0}
  m_TextStyleHashCode: -1183493901
  m_overrideHtmlColors: 0
  m_faceColor:
    serializedVersion: 2
    rgba: 4294967295
  m_fontSize: 5
  m_fontSizeBase: 5
  m_fontWeight: 400
  m_enableAutoSizing: 0
  m_fontSizeMin: 18
  m_fontSizeMax: 72
  m_fontStyle: 0
  m_HorizontalAlignment: 2
  m_VerticalAlignment: 512
  m_textAlignment: 65535
  m_characterSpacing: 0
  m_wordSpacing: 0
  m_lineSpacing: 0
  m_lineSpacingMax: 0
  m_paragraphSpacing: 0
  m_charWidthMaxAdj: 0
  m_enableWordWrapping: 0
  m_wordWrappingRatios: 0.4
  m_overflowMode: 0
  m_linkedTextComponent: {fileID: 0}
  parentLinkedComponent: {fileID: 0}
  m_enableKerning: 1
  m_enableExtraPadding: 0
  checkPaddingRequired: 0
  m_isRichText: 1
  m_parseCtrlCharacters: 1
  m_isOrthographic: 0
  m_isCullingEnabled: 0
  m_horizontalMapping: 0
  m_verticalMapping: 0
  m_uvLineOffset: 0
  m_geometrySortingOrder: 0
  m_IsTextObjectScaleStatic: 0
  m_VertexBufferAutoSizeReduction: 1
  m_useMaxVisibleDescender: 1
  m_pageToDisplay: 1
  m_margin: {x: 0, y: 0, z: 0, w: 0}
  m_isUsingLegacyAnimationComponent: 0
  m_isVolumetricText: 0
  _SortingLayer: 0
  _SortingLayerID: 0
  _SortingOrder: 0
  m_hasFontAssetChanged: 0
  m_renderer: {fileID: 2442206338865283565}
  m_maskType: 0
--- !u!1 &6177726709732403769
GameObject:
  m_ObjectHideFlags: 0
  m_CorrespondingSourceObject: {fileID: 0}
  m_PrefabInstance: {fileID: 0}
  m_PrefabAsset: {fileID: 0}
  serializedVersion: 6
  m_Component:
  - component: {fileID: 3329894725990415766}
  - component: {fileID: 5366035738926216243}
  - component: {fileID: 2761963897353256738}
  - component: {fileID: 655705560512841862}
  m_Layer: 0
  m_Name: Dot Separation
  m_TagString: Untagged
  m_Icon: {fileID: 0}
  m_NavMeshLayer: 0
  m_StaticEditorFlags: 0
  m_IsActive: 1
--- !u!4 &3329894725990415766
Transform:
  m_ObjectHideFlags: 0
  m_CorrespondingSourceObject: {fileID: 0}
  m_PrefabInstance: {fileID: 0}
  m_PrefabAsset: {fileID: 0}
  m_GameObject: {fileID: 6177726709732403769}
  m_LocalRotation: {x: 0, y: 0, z: 0, w: 1}
  m_LocalPosition: {x: 20, y: -2, z: 0}
  m_LocalScale: {x: 1, y: 1, z: 1}
  m_ConstrainProportionsScale: 0
  m_Children:
  - {fileID: 4422976884999247233}
  - {fileID: 3235087198473845056}
  - {fileID: 8144629161236317505}
  m_Father: {fileID: 0}
  m_RootOrder: 15
  m_LocalEulerAnglesHint: {x: 0, y: 0, z: 0}
--- !u!114 &5366035738926216243
MonoBehaviour:
  m_ObjectHideFlags: 0
  m_CorrespondingSourceObject: {fileID: 0}
  m_PrefabInstance: {fileID: 0}
  m_PrefabAsset: {fileID: 0}
  m_GameObject: {fileID: 6177726709732403769}
  m_Enabled: 1
  m_EditorHideFlags: 0
  m_Script: {fileID: 11500000, guid: 38ab3cdc3b49a6e428853efe80194005, type: 3}
  m_Name: 
  m_EditorClassIdentifier: 
  permanent: 0
  lifetime: 2
  unscaledTime: 0
  enable3DGame: 0
  faceCameraView: 1
  renderThroughWalls: 1
  consistentScreenSize: 1
  distanceScalingSettings:
    baseDistance: 15
    closeDistance: 5
    farDistance: 50
    closeScale: 2
    farScale: 0.5
  cameraOverride: {fileID: 0}
  enableNumber: 1
  number: 123
  numberSettings:
    bold: 0
    italic: 0
    underline: 0
    strike: 0
    alpha: 1
    customColor: 0
    color: {r: 1, g: 1, b: 0, a: 1}
    mark: 0
    markColor: {r: 0, g: 0, b: 0, a: 0.5}
    horizontal: 0
    vertical: 0
    characterSpacing: 0
    size: 0
  digitSettings:
    decimals: 0
    decimalChar: .
    hideZeros: 0
    dotSeparation: 1
    dotDistance: 3
    dotChar: .
    suffixShorten: 0
    suffixes:
    - K
    - M
    - B
    suffixDigits: 030000000300000003000000
    maxDigits: 4
  enableLeftText: 0
  leftText: 
  leftTextSettings:
    bold: 0
    italic: 0
    underline: 0
    strike: 0
    alpha: 1
    customColor: 0
    color: {r: 1, g: 1, b: 0, a: 1}
    mark: 0
    markColor: {r: 0, g: 0, b: 0, a: 0.5}
    horizontal: 0
    vertical: 0
    characterSpacing: 0
    size: 0
  enableRightText: 0
  rightText: ' XP'
  rightTextSettings:
    bold: 0
    italic: 0
    underline: 0
    strike: 0
    alpha: 1
    customColor: 0
    color: {r: 1, g: 1, b: 0, a: 1}
    mark: 0
    markColor: {r: 0, g: 0, b: 0, a: 0.5}
    horizontal: 0
    vertical: 0
    characterSpacing: 0
    size: -1.5
  enableTopText: 0
  topText: 
  topTextSettings:
    bold: 0
    italic: 0
    underline: 0
    strike: 0
    alpha: 1
    customColor: 0
    color: {r: 1, g: 1, b: 0, a: 1}
    mark: 0
    markColor: {r: 0, g: 0, b: 0, a: 0.5}
    horizontal: 0
    vertical: 0
    characterSpacing: 0
    size: 0
  enableBottomText: 0
  bottomText: 
  bottomTextSettings:
    bold: 0
    italic: 0
    underline: 0
    strike: 0
    alpha: 1
    customColor: 0
    color: {r: 1, g: 1, b: 0, a: 1}
    mark: 0
    markColor: {r: 0, g: 0, b: 0, a: 0.5}
    horizontal: 0
    vertical: 0
    characterSpacing: 0
    size: 0
  durationFadeIn: 0.2
  enableOffsetFadeIn: 0
  offsetFadeIn: {x: 0.5, y: 0}
  enableScaleFadeIn: 1
  scaleFadeIn: {x: -1.5, y: 2}
  enableCrossScaleFadeIn: 0
  crossScaleFadeIn: {x: 1, y: 1.5}
  enableShakeFadeIn: 0
  shakeOffsetFadeIn: {x: 0, y: 1.5}
  shakeFrequencyFadeIn: 4
  durationFadeOut: 0.2
  enableOffsetFadeOut: 0
  offsetFadeOut: {x: 0.5, y: 0}
  enableScaleFadeOut: 1
  scaleFadeOut: {x: 1.5, y: 1.5}
  enableCrossScaleFadeOut: 0
  crossScaleFadeOut: {x: 1, y: 1.5}
  enableShakeFadeOut: 0
  shakeOffsetFadeOut: {x: 0, y: 1.5}
  shakeFrequencyFadeOut: 4
  enableLerp: 1
  lerpSettings:
    speed: 5
    minX: -0.4
    maxX: 0.4
    minY: 0.5
    maxY: 1
    randomFlip: 0
  enableVelocity: 0
  velocitySettings:
    minX: -1
    maxX: 1
    minY: 4
    maxY: 5
    randomFlip: 0
    dragX: 0.1
    dragY: 1
    gravity: 3
  enableShaking: 1
  shakeSettings:
    offset: {x: 0, y: 0.005}
    frequency: 50
  enableFollowing: 0
  followedTarget: {fileID: 0}
  followSettings:
    speed: 10
    drag: 0
  enableStartRotation: 0
  minRotation: -4
  maxRotation: 4
  rotationRandomFlip: 0
  enableRotateOverTime: 0
  minRotationSpeed: -15
  maxRotationSpeed: 15
  rotationSpeedRandomFlip: 0
  rotateOverTime:
    serializedVersion: 2
    m_Curve:
    - serializedVersion: 3
      time: 0
      value: 1
      inSlope: 0
      outSlope: 0
      tangentMode: 0
      weightedMode: 0
      inWeight: 0
      outWeight: 0
    - serializedVersion: 3
      time: 0.4
      value: 1
      inSlope: 0
      outSlope: 0
      tangentMode: 0
      weightedMode: 0
      inWeight: 0
      outWeight: 0
    - serializedVersion: 3
      time: 0.8
      value: 0
      inSlope: 0
      outSlope: 0
      tangentMode: 0
      weightedMode: 0
      inWeight: 0
      outWeight: 0
    - serializedVersion: 3
      time: 1
      value: 0
      inSlope: 0
      outSlope: 0
      tangentMode: 0
      weightedMode: 0
      inWeight: 0
      outWeight: 0
    m_PreInfinity: 2
    m_PostInfinity: 2
    m_RotationOrder: 4
  enableScaleByNumber: 0
  scaleByNumberSettings:
    fromNumber: 0
    toNumber: 1000
    fromScale: 1
    toScale: 1.2
  enableScaleOverTime: 0
  scaleOverTime:
    serializedVersion: 2
    m_Curve:
    - serializedVersion: 3
      time: 0
      value: 1
      inSlope: 0
      outSlope: 0
      tangentMode: 0
      weightedMode: 0
      inWeight: 0
      outWeight: 0
    - serializedVersion: 3
      time: 1
      value: 0.7
      inSlope: 0
      outSlope: 0
      tangentMode: 0
      weightedMode: 0
      inWeight: 0
      outWeight: 0
    m_PreInfinity: 2
    m_PostInfinity: 2
    m_RotationOrder: 4
  spamGroup: 
  enableCombination: 0
  combinationSettings:
    method: 0
    maxDistance: 10
    spawnDelay: 0.2
    absorbDuration: 0.4
    scaleCurve:
      serializedVersion: 2
      m_Curve:
      - serializedVersion: 3
        time: 0
        value: 1
        inSlope: 0
        outSlope: 0
        tangentMode: 0
        weightedMode: 0
        inWeight: 0
        outWeight: 0
      - serializedVersion: 3
        time: 0.7
        value: 1
        inSlope: 0
        outSlope: 0
        tangentMode: 0
        weightedMode: 0
        inWeight: 0
        outWeight: 0
      - serializedVersion: 3
        time: 1
        value: 0
        inSlope: 0
        outSlope: 0
        tangentMode: 0
        weightedMode: 0
        inWeight: 0
        outWeight: 0
      m_PreInfinity: 2
      m_PostInfinity: 2
      m_RotationOrder: 4
    alphaCurve:
      serializedVersion: 2
      m_Curve:
      - serializedVersion: 3
        time: 0
        value: 1
        inSlope: 0
        outSlope: 0
        tangentMode: 0
        weightedMode: 0
        inWeight: 0
        outWeight: 0
      - serializedVersion: 3
        time: 0.5
        value: 1
        inSlope: 0
        outSlope: 0
        tangentMode: 0
        weightedMode: 0
        inWeight: 0
        outWeight: 0
      - serializedVersion: 3
        time: 1
        value: 0
        inSlope: 0
        outSlope: 0
        tangentMode: 0
        weightedMode: 0
        inWeight: 0
        outWeight: 0
      m_PreInfinity: 2
      m_PostInfinity: 2
      m_RotationOrder: 4
    moveToAbsorber: 1
    teleportToAbsorber: 0
    absorberScaleFactor: 1.5
    absorberScaleFade: 15
    instantGain: 0
    bonusLifetime: 1
  enableDestruction: 0
  destructionSettings:
    maxDistance: 2
    spawnDelay: 0.2
    duration: 0.3
    scaleCurve:
      serializedVersion: 2
      m_Curve:
      - serializedVersion: 3
        time: 0
        value: 1
        inSlope: 0
        outSlope: 0
        tangentMode: 0
        weightedMode: 0
        inWeight: 0
        outWeight: 0
      - serializedVersion: 3
        time: 1
        value: 0.5
        inSlope: 0
        outSlope: 0
        tangentMode: 0
        weightedMode: 0
        inWeight: 0
        outWeight: 0
      m_PreInfinity: 2
      m_PostInfinity: 2
      m_RotationOrder: 4
    alphaCurve:
      serializedVersion: 2
      m_Curve:
      - serializedVersion: 3
        time: 0
        value: 1
        inSlope: 0
        outSlope: 0
        tangentMode: 0
        weightedMode: 0
        inWeight: 0
        outWeight: 0
      - serializedVersion: 3
        time: 1
        value: 0
        inSlope: 0
        outSlope: 0
        tangentMode: 0
        weightedMode: 0
        inWeight: 0
        outWeight: 0
      m_PreInfinity: 2
      m_PostInfinity: 2
      m_RotationOrder: 4
  enableCollision: 0
  collisionSettings:
    radius: 0.5
    pushFactor: 1
    desiredDirection: {x: 0, y: 0, z: 0}
  enablePush: 0
  pushSettings:
    radius: 3
    pushOffset: 1
  updateDelay: 0.0125
  enablePooling: 0
  poolSize: 50
  position: {x: 0, y: 0, z: 0}
--- !u!210 &2761963897353256738
SortingGroup:
  m_ObjectHideFlags: 0
  m_CorrespondingSourceObject: {fileID: 0}
  m_PrefabInstance: {fileID: 0}
  m_PrefabAsset: {fileID: 0}
  m_GameObject: {fileID: 6177726709732403769}
  m_Enabled: 1
  m_SortingLayerID: 0
  m_SortingLayer: 0
  m_SortingOrder: 1000
  m_SortAtRoot: 0
--- !u!114 &655705560512841862
MonoBehaviour:
  m_ObjectHideFlags: 0
  m_CorrespondingSourceObject: {fileID: 0}
  m_PrefabInstance: {fileID: 0}
  m_PrefabAsset: {fileID: 0}
  m_GameObject: {fileID: 6177726709732403769}
  m_Enabled: 1
  m_EditorHideFlags: 0
  m_Script: {fileID: 11500000, guid: 83a59e7caad662244afa0070b2a31d01, type: 3}
  m_Name: 
  m_EditorClassIdentifier: 
  damage: 10
  numberRange: 99999999
  texts: []
  fonts: []
  randomColor: 0
